<?xml version="1.0" encoding="UTF-8" standalone="no"?>
<!-- Created with Inkscape (http://www.inkscape.org/) -->

<svg
   width="210mm"
   height="297mm"
   viewBox="0 0 210 297"
   version="1.1"
   id="svg5"
   inkscape:version="1.2.2 (b0a8486541, 2022-12-01)"
   sodipodi:docname="al_gn_hap.svg"
   inkscape:export-filename="al_gn_hap.png"
   inkscape:export-xdpi="90.43"
   inkscape:export-ydpi="90.43"
   xmlns:inkscape="http://www.inkscape.org/namespaces/inkscape"
   xmlns:sodipodi="http://sodipodi.sourceforge.net/DTD/sodipodi-0.dtd"
   xmlns="http://www.w3.org/2000/svg"
   xmlns:svg="http://www.w3.org/2000/svg">
  <sodipodi:namedview
     id="namedview7"
     pagecolor="#505050"
     bordercolor="#eeeeee"
     borderopacity="1"
     inkscape:showpageshadow="0"
     inkscape:pageopacity="0"
     inkscape:pagecheckerboard="0"
     inkscape:deskcolor="#505050"
     inkscape:document-units="mm"
     showgrid="false"
     inkscape:zoom="1.3238075"
     inkscape:cx="115.19802"
     inkscape:cy="291.58318"
     inkscape:window-width="2560"
     inkscape:window-height="1385"
     inkscape:window-x="0"
     inkscape:window-y="26"
     inkscape:window-maximized="1"
     inkscape:current-layer="layer1" />
  <defs
     id="defs2">
    <rect
       x="117.91503"
       y="37.991011"
       width="31.434356"
       height="30.917557"
       id="rect1126" />
  </defs>
  <g
     inkscape:label="Layer 1"
     inkscape:groupmode="layer"
     id="layer1">
    <path
       style="fill:none;stroke:#ffff15;stroke-width:4;stroke-linecap:round;stroke-linejoin:miter;stroke-dasharray:none;stroke-opacity:1"
       d="M 30.360266,42.083325 H 187.53121"
       id="path446" />
    <path
       style="fill:none;stroke:#ffff15;stroke-width:1;stroke-linecap:round;stroke-linejoin:miter;stroke-dasharray:none;stroke-opacity:1"
       d="M 48.614452,48.047314 V 35.564266"
       id="path1004" />
    <path
       style="fill:none;stroke:#ffff15;stroke-width:1;stroke-linecap:round;stroke-linejoin:miter;stroke-dasharray:none;stroke-opacity:1"
       d="M 170.3229,48.047314 V 35.564266"
       id="path1064" />
    <path
       style="fill:none;stroke:#d514d0;stroke-width:4;stroke-linecap:round;stroke-linejoin:miter;stroke-dasharray:none;stroke-opacity:1"
       d="M 30.360266,63.249993 H 187.53121"
       id="path1066" />
    <path
       style="fill:none;stroke:#d514d0;stroke-width:1;stroke-linecap:round;stroke-linejoin:miter;stroke-dasharray:none;stroke-opacity:1"
       d="M 48.614452,69.213982 V 56.730934"
       id="path1068" />
    <path
       style="fill:none;stroke:#d514d0;stroke-width:1;stroke-linecap:round;stroke-linejoin:miter;stroke-dasharray:none;stroke-opacity:1"
       d="M 170.3229,69.213982 V 56.730934"
       id="path1070" />
    <text
       xml:space="preserve"
       transform="scale(0.26458333)"
       id="text1124"
       style="font-size:48px;line-height:1.25;font-family:Arial;-inkscape-font-specification:Arial;letter-spacing:0px;word-spacing:0px;white-space:pre;shape-inside:url(#rect1126);display:inline"><tspan
         x="117.91406"
         y="118.64109"
         id="tspan5389"><tspan
           style="font-size:53.3333px;font-family:Ubuntu;-inkscape-font-specification:Ubuntu"
           id="tspan5387">A</tspan></tspan></text>
    <text
       xml:space="preserve"
       style="font-size:14.1111px;line-height:1.25;font-family:Ubuntu;-inkscape-font-specification:Ubuntu;letter-spacing:0px;word-spacing:0px;fill:#00b31a;fill-opacity:1;stroke-width:0.264583"
       x="43.888466"
       y="33.88781"
       id="text1132"><tspan
         sodipodi:role="line"
         id="tspan1130"
         style="fill:#00b31a;fill-opacity:1;stroke-width:0.264583"
         x="43.888466"
         y="33.88781">A</tspan></text>
    <text
       xml:space="preserve"
       style="font-size:14.1111px;line-height:1.25;font-family:Ubuntu;-inkscape-font-specification:Ubuntu;letter-spacing:0px;word-spacing:0px;fill:#00b31a;fill-opacity:1;stroke-width:0.264583"
       x="43.888466"
       y="82.041985"
       id="text1136"><tspan
         sodipodi:role="line"
         id="tspan1134"
         style="fill:#00b31a;fill-opacity:1;stroke-width:0.264583"
         x="43.888466"
         y="82.041985">A</tspan></text>
    <text
       xml:space="preserve"
       style="font-size:14.1111px;line-height:1.25;font-family:Ubuntu;-inkscape-font-specification:Ubuntu;letter-spacing:0px;word-spacing:0px;fill:#bd0000;fill-opacity:1;stroke-width:0.264583"
       x="166.32564"
       y="82.041985"
       id="text1140"><tspan
         sodipodi:role="line"
         id="tspan1138"
         style="fill:#bd0000;fill-opacity:1;stroke-width:0.264583"
         x="166.32564"
         y="82.041985">T</tspan></text>
    <text
       xml:space="preserve"
       style="font-size:14.1111px;line-height:1.25;font-family:Ubuntu;-inkscape-font-specification:Ubuntu;letter-spacing:0px;word-spacing:0px;fill:#090ac3;fill-opacity:1;stroke-width:0.264583"
       x="165.79648"
       y="33.88781"
       id="text1194"><tspan
         sodipodi:role="line"
         id="tspan1192"
         style="fill:#090ac3;fill-opacity:1;stroke-width:0.264583"
         x="165.79648"
         y="33.88781">C</tspan></text>
    <text
       xml:space="preserve"
       style="font-size:14.1111px;line-height:1.25;font-family:Ubuntu;-inkscape-font-specification:Ubuntu;letter-spacing:0px;word-spacing:0px;stroke-width:0.264583;fill:#ffffff;fill-opacity:1"
       x="24.933081"
       y="17.880783"
       id="text1198"><tspan
         sodipodi:role="line"
         id="tspan1196"
         style="stroke-width:0.264583;fill:#ffffff;fill-opacity:1"
         x="24.933081"
         y="17.880783">Locus 1</tspan></text>
    <text
       xml:space="preserve"
       style="font-size:14.1111px;line-height:1.25;font-family:Ubuntu;-inkscape-font-specification:Ubuntu;letter-spacing:0px;word-spacing:0px;stroke-width:0.264583;fill:#ffffff;fill-opacity:1"
       x="147.17039"
       y="17.880783"
       id="text1202"><tspan
         sodipodi:role="line"
         id="tspan1200"
         style="stroke-width:0.264583;fill:#ffffff;fill-opacity:1"
         x="147.17039"
         y="17.880783">Locus 2</tspan></text>
    <text
       xml:space="preserve"
       style="font-size:14.1111px;line-height:1.25;font-family:Ubuntu;-inkscape-font-specification:Ubuntu;letter-spacing:0px;word-spacing:0px;stroke-width:0.264583;fill:#ffff15;fill-opacity:1"
       x="76.299179"
       y="37.011955"
       id="text1251"><tspan
         sodipodi:role="line"
         id="tspan1249"
         style="stroke-width:0.264583;fill:#ffff15;fill-opacity:1"
         x="76.299179"
         y="37.011955">Haplotype 1</tspan></text>
    <text
       xml:space="preserve"
       style="font-size:14.1111px;line-height:1.25;font-family:Ubuntu;-inkscape-font-specification:Ubuntu;letter-spacing:0px;word-spacing:0px;fill:#d514d0;fill-opacity:1;stroke-width:0.264583"
       x="76.299179"
       y="77.75779"
       id="text1255"><tspan
         sodipodi:role="line"
         id="tspan1253"
         style="fill:#d514d0;fill-opacity:1;stroke-width:0.264583"
         x="76.299179"
         y="77.75779">Haplotype 2</tspan></text>
    <path
       style="fill:none;fill-opacity:1;stroke:#ffad22;stroke-width:1;stroke-linecap:round;stroke-linejoin:bevel;stroke-dasharray:none;stroke-opacity:1"
       id="path1342"
       sodipodi:type="arc"
       sodipodi:cx="49.382053"
       sodipodi:cy="77.901428"
       sodipodi:rx="10.59272"
       sodipodi:ry="7.8045406"
       sodipodi:start="1.5766554"
       sodipodi:end="1.5707963"
       sodipodi:open="true"
       sodipodi:arc-type="arc"
       d="M 49.31999,85.705835 A 10.59272,7.8045406 0 0 1 38.789436,77.867133 10.59272,7.8045406 0 0 1 49.413085,70.096921 10.59272,7.8045406 0 0 1 59.974762,77.91286 10.59272,7.8045406 0 0 1 49.382053,85.705969" />
    <text
       xml:space="preserve"
       style="font-size:14.1111px;line-height:1.25;font-family:Ubuntu;-inkscape-font-specification:Ubuntu;letter-spacing:0px;word-spacing:0px;stroke-width:0.264583"
       x="55.644192"
       y="94.247566"
       id="text3270"><tspan
         sodipodi:role="line"
         id="tspan3268"
         style="stroke-width:0.264583"
         x="55.644192"
         y="94.247566"><tspan
           style="fill:#ffad22;fill-opacity:1;stroke:none;stroke-opacity:1"
           id="tspan3272">Allele </tspan><tspan
           style="fill:#00b31a;fill-opacity:1"
           id="tspan3278">A</tspan></tspan></text>
    <path
       style="fill:none;fill-opacity:1;stroke:#00d8cf;stroke-width:1;stroke-linecap:round;stroke-linejoin:bevel;stroke-dasharray:none;stroke-opacity:1"
       id="path3332"
       sodipodi:type="arc"
       sodipodi:cx="170.43425"
       sodipodi:cy="53.305523"
       sodipodi:rx="7.9922986"
       sodipodi:ry="32.571545"
       sodipodi:start="1.5766554"
       sodipodi:end="1.5707963"
       sodipodi:open="true"
       sodipodi:arc-type="arc"
       d="m 170.38742,85.876508 a 7.9922986,32.571545 0 0 1 -7.94539,-32.714114 7.9922986,32.571545 0 0 1 8.01563,-32.428276 7.9922986,32.571545 0 0 1 7.96888,32.619114 7.9922986,32.571545 0 0 1 -7.99229,32.523836" />
    <text
       xml:space="preserve"
       style="font-size:14.1111px;line-height:1.25;font-family:Ubuntu;-inkscape-font-specification:Ubuntu;letter-spacing:0px;word-spacing:0px;stroke-width:0.264583"
       x="125.24116"
       y="97.4599"
       id="text5156"><tspan
         sodipodi:role="line"
         id="tspan5154"
         style="stroke-width:0.264583"
         x="125.24116"
         y="97.4599"><tspan
           style="fill:#00d8cf;fill-opacity:1"
           id="tspan5158">Genotype </tspan><tspan
           style="fill:#090ac3;fill-opacity:1"
           id="tspan5160">C</tspan><tspan
           style="fill:#bd0000;fill-opacity:1"
           id="tspan5162">T</tspan></tspan></text>
  </g>
</svg>
