<?xml version="1.0" encoding="UTF-8" standalone="no"?>
<!-- Created with Inkscape (http://www.inkscape.org/) -->

<svg
   width="210mm"
   height="297mm"
   viewBox="0 0 210 297"
   version="1.1"
   id="svg1"
   inkscape:version="1.3.2 (091e20ef0f, 2023-11-25, custom)"
   sodipodi:docname="maximalist.svg"
   inkscape:export-filename="maximalist.png"
   inkscape:export-xdpi="190"
   inkscape:export-ydpi="190"
   xmlns:inkscape="http://www.inkscape.org/namespaces/inkscape"
   xmlns:sodipodi="http://sodipodi.sourceforge.net/DTD/sodipodi-0.dtd"
   xmlns="http://www.w3.org/2000/svg"
   xmlns:svg="http://www.w3.org/2000/svg">
  <sodipodi:namedview
     id="namedview1"
     pagecolor="#373737"
     bordercolor="#999999"
     borderopacity="1"
     inkscape:showpageshadow="0"
     inkscape:pageopacity="0"
     inkscape:pagecheckerboard="0"
     inkscape:deskcolor="#000000"
     inkscape:document-units="mm"
     inkscape:zoom="1.4966329"
     inkscape:cx="452.01464"
     inkscape:cy="115.59281"
     inkscape:window-width="1920"
     inkscape:window-height="1026"
     inkscape:window-x="0"
     inkscape:window-y="0"
     inkscape:window-maximized="1"
     inkscape:current-layer="g11" />
  <defs
     id="defs1" />
  <g
     inkscape:label="Layer 1"
     inkscape:groupmode="layer"
     id="layer1">
    <g
       id="g9"
       inkscape:export-filename="fragments.png"
       inkscape:export-xdpi="134.17"
       inkscape:export-ydpi="134.17"
       transform="translate(-10.054167,12.787167)">
      <path
         style="fill:none;stroke:#1c42dd;stroke-width:2.5;stroke-linecap:round;stroke-linejoin:miter;stroke-dasharray:none;stroke-opacity:1"
         d="M 20.044968,22.694517 H 58.525446"
         id="path1" />
      <path
         style="fill:none;stroke:#1c42dd;stroke-width:2.5;stroke-linecap:round;stroke-linejoin:miter;stroke-dasharray:none;stroke-opacity:1"
         d="M 20.044968,27.154639 H 58.525446"
         id="path2" />
      <path
         style="fill:none;stroke:#1c42dd;stroke-width:2.5;stroke-linecap:round;stroke-linejoin:miter;stroke-dasharray:none;stroke-opacity:1"
         d="M 20.044968,31.614761 H 58.525446"
         id="path3" />
      <path
         style="fill:none;stroke:#1c42dd;stroke-width:2.5;stroke-linecap:round;stroke-linejoin:miter;stroke-dasharray:none;stroke-opacity:1"
         d="M 20.044968,36.074883 H 58.525446"
         id="path4" />
      <path
         style="fill:none;stroke:#1c42dd;stroke-width:2.5;stroke-linecap:round;stroke-linejoin:miter;stroke-dasharray:none;stroke-opacity:1"
         d="M 20.044968,40.535004 H 58.525446"
         id="path5" />
      <path
         style="fill:none;stroke:#1c42dd;stroke-width:2.5;stroke-linecap:round;stroke-linejoin:miter;stroke-dasharray:none;stroke-opacity:1"
         d="M 20.044968,44.995126 H 58.525446"
         id="path6" />
      <path
         style="fill:none;stroke:#1c42dd;stroke-width:2.5;stroke-linecap:round;stroke-linejoin:miter;stroke-dasharray:none;stroke-opacity:1"
         d="M 20.044968,49.455248 H 58.525446"
         id="path7" />
      <path
         style="fill:none;stroke:#1c42dd;stroke-width:2.5;stroke-linecap:round;stroke-linejoin:miter;stroke-dasharray:none;stroke-opacity:1"
         d="M 20.044968,53.91537 H 58.525446"
         id="path8" />
      <text
         xml:space="preserve"
         style="font-style:normal;font-variant:normal;font-weight:normal;font-stretch:normal;font-size:4.93889px;line-height:1.25;font-family:'Ubuntu Mono';-inkscape-font-specification:'Ubuntu Mono';letter-spacing:0px;word-spacing:0px;stroke-width:0.264583"
         x="14.874249"
         y="23.838583"
         id="text8"><tspan
           sodipodi:role="line"
           id="tspan8"
           style="font-style:normal;font-variant:normal;font-weight:normal;font-stretch:normal;font-size:4.93889px;font-family:'Ubuntu Mono';-inkscape-font-specification:'Ubuntu Mono';fill:#ffffff;fill-opacity:1;stroke-width:0.264583"
           x="14.874249"
           y="23.838583">A</tspan></text>
      <text
         xml:space="preserve"
         style="font-style:normal;font-variant:normal;font-weight:normal;font-stretch:normal;font-size:4.93889px;line-height:1.25;font-family:'Ubuntu Mono';-inkscape-font-specification:'Ubuntu Mono';letter-spacing:0px;word-spacing:0px;stroke-width:0.264583"
         x="15.071805"
         y="28.351402"
         id="text8-5"><tspan
           sodipodi:role="line"
           id="tspan8-3"
           style="font-style:normal;font-variant:normal;font-weight:normal;font-stretch:normal;font-size:4.93889px;font-family:'Ubuntu Mono';-inkscape-font-specification:'Ubuntu Mono';fill:#ffffff;fill-opacity:1;stroke-width:0.264583"
           x="15.071805"
           y="28.351402">B</tspan></text>
      <text
         xml:space="preserve"
         style="font-style:normal;font-variant:normal;font-weight:normal;font-stretch:normal;font-size:4.93889px;line-height:1.25;font-family:'Ubuntu Mono';-inkscape-font-specification:'Ubuntu Mono';letter-spacing:0px;word-spacing:0px;stroke-width:0.264583"
         x="15.027355"
         y="32.861755"
         id="text8-9"><tspan
           sodipodi:role="line"
           id="tspan8-1"
           style="font-style:normal;font-variant:normal;font-weight:normal;font-stretch:normal;font-size:4.93889px;font-family:'Ubuntu Mono';-inkscape-font-specification:'Ubuntu Mono';fill:#ffffff;fill-opacity:1;stroke-width:0.264583"
           x="15.027355"
           y="32.861755">C</tspan></text>
      <text
         xml:space="preserve"
         style="font-style:normal;font-variant:normal;font-weight:normal;font-stretch:normal;font-size:4.93889px;line-height:1.25;font-family:'Ubuntu Mono';-inkscape-font-specification:'Ubuntu Mono';letter-spacing:0px;word-spacing:0px;stroke-width:0.264583"
         x="15.027355"
         y="37.372105"
         id="text8-93"><tspan
           sodipodi:role="line"
           id="tspan8-6"
           style="font-style:normal;font-variant:normal;font-weight:normal;font-stretch:normal;font-size:4.93889px;font-family:'Ubuntu Mono';-inkscape-font-specification:'Ubuntu Mono';fill:#ffffff;fill-opacity:1;stroke-width:0.264583"
           x="15.027355"
           y="37.372105">D</tspan></text>
      <text
         xml:space="preserve"
         style="font-style:normal;font-variant:normal;font-weight:normal;font-stretch:normal;font-size:4.93889px;line-height:1.25;font-family:'Ubuntu Mono';-inkscape-font-specification:'Ubuntu Mono';letter-spacing:0px;word-spacing:0px;stroke-width:0.264583"
         x="15.027355"
         y="41.879986"
         id="text8-6"><tspan
           sodipodi:role="line"
           id="tspan8-18"
           style="font-style:normal;font-variant:normal;font-weight:normal;font-stretch:normal;font-size:4.93889px;font-family:'Ubuntu Mono';-inkscape-font-specification:'Ubuntu Mono';fill:#ffffff;fill-opacity:1;stroke-width:0.264583"
           x="15.027355"
           y="41.879986">E</tspan></text>
      <text
         xml:space="preserve"
         style="font-style:normal;font-variant:normal;font-weight:normal;font-stretch:normal;font-size:4.93889px;line-height:1.25;font-family:'Ubuntu Mono';-inkscape-font-specification:'Ubuntu Mono';letter-spacing:0px;word-spacing:0px;stroke-width:0.264583"
         x="15.116255"
         y="46.390335"
         id="text8-5-7"><tspan
           sodipodi:role="line"
           id="tspan8-3-9"
           style="font-style:normal;font-variant:normal;font-weight:normal;font-stretch:normal;font-size:4.93889px;font-family:'Ubuntu Mono';-inkscape-font-specification:'Ubuntu Mono';fill:#ffffff;fill-opacity:1;stroke-width:0.264583"
           x="15.116255"
           y="46.390335">F</tspan></text>
      <text
         xml:space="preserve"
         style="font-style:normal;font-variant:normal;font-weight:normal;font-stretch:normal;font-size:4.93889px;line-height:1.25;font-family:'Ubuntu Mono';-inkscape-font-specification:'Ubuntu Mono';letter-spacing:0px;word-spacing:0px;stroke-width:0.264583"
         x="15.05205"
         y="50.903156"
         id="text8-9-2"><tspan
           sodipodi:role="line"
           id="tspan8-1-0"
           style="font-style:normal;font-variant:normal;font-weight:normal;font-stretch:normal;font-size:4.93889px;font-family:'Ubuntu Mono';-inkscape-font-specification:'Ubuntu Mono';fill:#ffffff;fill-opacity:1;stroke-width:0.264583"
           x="15.05205"
           y="50.903156">G</tspan></text>
      <text
         xml:space="preserve"
         style="font-style:normal;font-variant:normal;font-weight:normal;font-stretch:normal;font-size:4.93889px;line-height:1.25;font-family:'Ubuntu Mono';-inkscape-font-specification:'Ubuntu Mono';letter-spacing:0px;word-spacing:0px;stroke-width:0.264583"
         x="15.05205"
         y="55.411037"
         id="text8-93-2"><tspan
           sodipodi:role="line"
           id="tspan8-6-3"
           style="font-style:normal;font-variant:normal;font-weight:normal;font-stretch:normal;font-size:4.93889px;font-family:'Ubuntu Mono';-inkscape-font-specification:'Ubuntu Mono';fill:#ffffff;fill-opacity:1;stroke-width:0.264583"
           x="15.05205"
           y="55.411037">H</tspan></text>
    </g>
    <g
       id="g8"
       transform="translate(-23.71079,-28.667403)">
      <path
         style="fill:none;stroke:#dcdd1c;stroke-width:2.5;stroke-linecap:round;stroke-linejoin:miter;stroke-dasharray:none;stroke-opacity:1"
         d="m 74.62187,64.149085 h 38.48048"
         id="path1-6" />
      <path
         style="fill:none;stroke:#dcdd1c;stroke-width:2.5;stroke-linecap:round;stroke-linejoin:miter;stroke-dasharray:none;stroke-opacity:1"
         d="m 74.62187,68.609207 h 38.48048"
         id="path2-1" />
      <path
         style="fill:none;stroke:#dcdd1c;stroke-width:2.5;stroke-linecap:round;stroke-linejoin:miter;stroke-dasharray:none;stroke-opacity:1"
         d="m 74.62187,73.069329 h 38.48048"
         id="path3-5" />
      <path
         style="fill:none;stroke:#dcdd1c;stroke-width:2.5;stroke-linecap:round;stroke-linejoin:miter;stroke-dasharray:none;stroke-opacity:1"
         d="m 74.62187,77.529451 h 38.48048"
         id="path4-5" />
      <path
         style="fill:none;stroke:#dcdd1c;stroke-width:2.5;stroke-linecap:round;stroke-linejoin:miter;stroke-dasharray:none;stroke-opacity:1"
         d="m 74.62187,81.989572 h 38.48048"
         id="path5-4" />
      <path
         style="fill:none;stroke:#dcdd1c;stroke-width:2.5;stroke-linecap:round;stroke-linejoin:miter;stroke-dasharray:none;stroke-opacity:1"
         d="m 74.62187,95.369938 h 38.48048"
         id="path8-5" />
      <path
         style="fill:none;stroke:#dd1ccc;stroke-width:2.5;stroke-linecap:round;stroke-linejoin:miter;stroke-dasharray:none;stroke-opacity:1"
         d="m 74.62187,86.449403 h 38.48048"
         id="path9" />
      <path
         style="fill:none;stroke:#dd1ccc;stroke-width:2.5;stroke-linecap:round;stroke-linejoin:miter;stroke-dasharray:none;stroke-opacity:1"
         d="m 74.62187,90.909403 h 38.48048"
         id="path10" />
    </g>
    <g
       id="g10"
       transform="translate(-8.8071553,1.4123014)">
      <path
         style="fill:none;stroke:#1cdd47;stroke-width:2.5;stroke-linecap:round;stroke-linejoin:miter;stroke-dasharray:none;stroke-opacity:1"
         d="m 100.63852,34.069385 h 38.48049"
         id="path1-4" />
      <path
         style="fill:none;stroke:#1cdd47;stroke-width:2.5;stroke-linecap:round;stroke-linejoin:miter;stroke-dasharray:none;stroke-opacity:1"
         d="m 100.63852,38.529507 h 38.48049"
         id="path2-9" />
      <path
         style="fill:none;stroke:#1cdd47;stroke-width:2.5;stroke-linecap:round;stroke-linejoin:miter;stroke-dasharray:none;stroke-opacity:1"
         d="m 100.63852,47.449751 h 38.48049"
         id="path4-0" />
      <path
         style="fill:none;stroke:#1cdd47;stroke-width:2.5;stroke-linecap:round;stroke-linejoin:miter;stroke-dasharray:none;stroke-opacity:1"
         d="m 100.63852,56.369994 h 38.48049"
         id="path6-8" />
      <path
         style="fill:none;stroke:#1cdd47;stroke-width:2.5;stroke-linecap:round;stroke-linejoin:miter;stroke-dasharray:none;stroke-opacity:1"
         d="m 100.63852,60.830116 h 38.48049"
         id="path7-9" />
      <path
         style="fill:none;stroke:#1cdd47;stroke-width:2.5;stroke-linecap:round;stroke-linejoin:miter;stroke-dasharray:none;stroke-opacity:1"
         d="m 100.63852,65.290241 h 38.48049"
         id="path8-2" />
      <path
         style="fill:none;stroke:#dd1ccc;stroke-width:2.5;stroke-linecap:round;stroke-linejoin:miter;stroke-dasharray:none;stroke-opacity:1"
         d="m 100.63852,42.989699 h 38.48049"
         id="path11" />
      <path
         style="fill:none;stroke:#dd1ccc;stroke-width:2.5;stroke-linecap:round;stroke-linejoin:miter;stroke-dasharray:none;stroke-opacity:1"
         d="m 100.63852,51.909699 h 38.48049"
         id="path12" />
    </g>
    <g
       id="g11"
       transform="translate(-16.933333,-25.573908)">
      <path
         style="fill:none;stroke:#dd1c29;stroke-width:2.5;stroke-linecap:round;stroke-linejoin:miter;stroke-dasharray:none;stroke-opacity:1"
         d="m 149.68499,61.05602 h 38.48048"
         id="path1-49" />
      <path
         style="fill:none;stroke:#dd1c29;stroke-width:2.5;stroke-linecap:round;stroke-linejoin:miter;stroke-dasharray:none;stroke-opacity:1"
         d="m 149.68499,69.976264 h 38.48048"
         id="path3-9" />
      <path
         style="fill:none;stroke:#dd1c29;stroke-width:2.5;stroke-linecap:round;stroke-linejoin:miter;stroke-dasharray:none;stroke-opacity:1"
         d="m 149.68499,78.896507 h 38.48048"
         id="path5-7" />
      <path
         style="fill:none;stroke:#dd1c29;stroke-width:2.5;stroke-linecap:round;stroke-linejoin:miter;stroke-dasharray:none;stroke-opacity:1"
         d="m 149.68499,83.356629 h 38.48048"
         id="path6-7" />
      <path
         style="fill:none;stroke:#dd1c29;stroke-width:2.5;stroke-linecap:round;stroke-linejoin:miter;stroke-dasharray:none;stroke-opacity:1"
         d="m 149.68499,87.816751 h 38.48048"
         id="path7-1" />
      <path
         style="fill:none;stroke:#dd1ccc;stroke-width:2.5;stroke-linecap:round;stroke-linejoin:miter;stroke-dasharray:none;stroke-opacity:1"
         d="m 149.68499,65.289356 h 38.48048"
         id="path13" />
      <path
         style="fill:none;stroke:#dd1ccc;stroke-width:2.5;stroke-linecap:round;stroke-linejoin:miter;stroke-dasharray:none;stroke-opacity:1"
         d="m 149.68499,74.435908 h 38.48048"
         id="path14" />
      <path
         style="fill:none;stroke:#dd1ccc;stroke-width:2.5;stroke-linecap:round;stroke-linejoin:miter;stroke-dasharray:none;stroke-opacity:1"
         d="m 149.68499,92.276873 h 38.48048"
         id="path15" />
    </g>
  </g>
</svg>
